Project1AJH
…
## ── Conflicts ────────────────────────────────────────── tidyverse_conflicts() ──
## x dplyr::filter() masks stats::filter()
## x dplyr::lag()    masks stats::lag()

install.packages('fivethirtyeightdata', repos = 'https://fivethirtyeightdata.github.io/drat/', type = 'source')

## Installing package into '/stor/home/ajh4539/R/x86_64-pc-linux-gnu-library/3.6'
## (as 'lib' is unspecified)

library(fivethirtyeightdata)
library(fivethirtyeight)

college_recent_grads %>% pivot_longer(c("men", "women"), names_to = "gender", values_to= "graduates" ) %>% group_by(major_category) 

## # A tibble: 346 x 21
## # Groups:   major_category [16]
##     rank major_code major major_category total sample_size sharewomen employed
##    <int>      <int> <chr> <chr>          <int>       <int>      <dbl>    <int>
##  1     1       2419 Petr… Engineering     2339          36      0.121     1976
##  2     1       2419 Petr… Engineering     2339          36      0.121     1976
##  3     2       2416 Mini… Engineering      756           7      0.102      640
##  4     2       2416 Mini… Engineering      756           7      0.102      640
##  5     3       2415 Meta… Engineering      856           3      0.153      648
##  6     3       2415 Meta… Engineering      856           3      0.153      648
##  7     4       2417 Nava… Engineering     1258          16      0.107      758
##  8     4       2417 Nava… Engineering     1258          16      0.107      758
##  9     5       2405 Chem… Engineering    32260         289      0.342    25694
## 10     5       2405 Chem… Engineering    32260         289      0.342    25694
## # … with 336 more rows, and 13 more variables: employed_fulltime <int>,
## #   employed_parttime <int>, employed_fulltime_yearround <int>,
## #   unemployed <int>, unemployment_rate <dbl>, p25th <dbl>, median <dbl>,
## #   p75th <dbl>, college_jobs <int>, non_college_jobs <int>,
## #   low_wage_jobs <int>, gender <chr>, graduates <int>
…
#The following table shows the rankings of the engineering majors, ranked in order of descending median income. Since engineering has the highest median income as a major category, petroleum engineering is found to be the highest earning major overall. 
simplecollege %>% filter(major_category.x == "Engineering") %>% arrange(rank)

## # A tibble: 29 x 21
##    major_code major.x major_category.x total.x employed.x employed_fullti…
##         <int> <chr>   <chr>              <int>      <int>            <int>
##  1       2419 Petrol… Engineering        19631      14002            11636
##  2       2416 Mining… Engineering        10746       7416             6419
##  3       2415 Metall… Engineering        12818       6939             5462
##  4       2417 Naval … Engineering        16094      10690             9226
##  5       2405 Chemic… Engineering       188046     131697           109406
##  6       2418 Nuclea… Engineering         9826       7320             6474
##  7       2414 Mechan… Engineering       581529     422207           362053
##  8       2408 Electr… Engineering       671647     489965           422317
##  9       2407 Comput… Engineering       154160     128742           111025
## 10       2401 Aerosp… Engineering        65734      44944            38491
## # … with 19 more rows, and 15 more variables: unemployed.x <int>,
## #   unemployment_rate.x <dbl>, p25th.x <dbl>, median.x <dbl>, p75th.x <dbl>,
## #   rank <int>, sample_size <int>, men <int>, women <int>, sharewomen <dbl>,
## #   employed_fulltime <int>, employed_parttime <int>, college_jobs <int>,
## #   non_college_jobs <int>, low_wage_jobs <int>
…
#This table gives the average percentage of women by major category. Results of this statistic are shown and explained in the Visualizing section. 
simplecollege %>% group_by(major_category.x) %>% select(c(3,16)) %>% mutate(mean(sharewomen)) %>% arrange(desc(mean(sharewomen)))

## # A tibble: 172 x 3
## # Groups:   major_category.x [16]
##    major_category.x                sharewomen `mean(sharewomen)`
##    <chr>                                <dbl>              <dbl>
##  1 Agriculture & Natural Resources      0.418              0.405
##  2 Agriculture & Natural Resources      0.322              0.405
##  3 Agriculture & Natural Resources      0.283              0.405
##  4 Agriculture & Natural Resources      0.752              0.405
##  5 Agriculture & Natural Resources      0.340              0.405
##  6 Agriculture & Natural Resources      0.305              0.405
##  7 Agriculture & Natural Resources      0.728              0.405
##  8 Biology & Life Science               0.585              0.587
##  9 Agriculture & Natural Resources      0.125              0.405
## 10 Agriculture & Natural Resources      0.374              0.405
## # … with 162 more rows
…
